<svg width="26" height="26" viewBox="0 0 26 26" fill="none" xmlns="http://www.w3.org/2000/svg">
<path d="M18.4279 20.6297H17.2949C16.9224 20.6166 16.5703 20.4563 16.3159 20.1839C16.0615 19.9114 15.9255 19.5492 15.9379 19.1767V15.2767C15.9472 15.1278 15.9061 14.9801 15.8212 14.8575C15.7363 14.7349 15.6125 14.6444 15.4699 14.6007C15.3888 14.5879 15.3057 14.5936 15.2271 14.6175C15.1485 14.6414 15.0763 14.6829 15.0159 14.7387C14.9517 14.7992 14.9008 14.8724 14.8664 14.9536C14.8319 15.0349 14.8148 15.1224 14.8159 15.2107V19.1787C14.8284 19.5512 14.6924 19.9134 14.438 20.1859C14.1836 20.4583 13.8315 20.6186 13.4589 20.6317H12.3189C11.9464 20.6186 11.5943 20.4583 11.3399 20.1859C11.0855 19.9134 10.9495 19.5512 10.9619 19.1787V15.2087C10.9215 13.9979 11.3629 12.8205 12.1895 11.9349C13.0161 11.0492 14.1603 10.5277 15.3709 10.4847C16.5816 10.5277 17.7258 11.0492 18.5524 11.9349C19.379 12.8205 19.8204 13.9979 19.7799 15.2087V19.1767C19.7924 19.5484 19.6571 19.9099 19.4038 20.1822C19.1504 20.4544 18.7996 20.6153 18.4279 20.6297V20.6297ZM15.3759 13.1377C15.4822 13.1305 15.5887 13.1305 15.6949 13.1377C16.1642 13.2495 16.5802 13.5207 16.8719 13.9049C17.1637 14.2891 17.3132 14.7626 17.2949 15.2447V19.1767H18.4279V15.2087C18.4558 14.3706 18.1501 13.5557 17.5779 12.9427C17.0058 12.3297 16.2139 11.9686 15.3759 11.9387C14.5371 11.9673 13.7439 12.3279 13.1707 12.941C12.5975 13.5542 12.2912 14.3698 12.3189 15.2087V19.1767H13.4559V15.2087C13.4386 14.6801 13.6305 14.1661 13.9901 13.7783C14.3496 13.3905 14.8476 13.1603 15.3759 13.1377V13.1377ZM8.93195 20.6297H7.57595C7.20342 20.6166 6.8513 20.4563 6.59688 20.1839C6.34246 19.9114 6.20653 19.5492 6.21895 19.1767V11.9087C6.20653 11.5361 6.34246 11.1739 6.59688 10.9014C6.8513 10.629 7.20342 10.4687 7.57595 10.4557H8.93195C9.30447 10.4687 9.65659 10.629 9.91102 10.9014C10.1654 11.1739 10.3014 11.5361 10.2889 11.9087V19.1757C10.3016 19.5484 10.1658 19.9109 9.91138 20.1835C9.65693 20.4561 9.30465 20.6166 8.93195 20.6297V20.6297ZM7.57595 11.9087V19.1757H8.93195V11.9087H7.57595ZM8.25395 9.72865C7.69521 9.70883 7.16715 9.46817 6.78563 9.05948C6.40412 8.65078 6.20032 8.10743 6.21895 7.54865C6.20032 6.98987 6.40412 6.44652 6.78563 6.03783C7.16715 5.62913 7.69521 5.38847 8.25395 5.36865C8.81269 5.38847 9.34075 5.62913 9.72226 6.03783C10.1038 6.44652 10.3076 6.98987 10.2889 7.54865C10.3076 8.10743 10.1038 8.65078 9.72226 9.05948C9.34075 9.46817 8.81269 9.70883 8.25395 9.72865V9.72865ZM8.25395 6.82165C8.16157 6.82449 8.07067 6.84558 7.98649 6.88373C7.90231 6.92188 7.82652 6.97631 7.76349 7.0439C7.70045 7.11149 7.65143 7.19089 7.61924 7.27752C7.58705 7.36415 7.57234 7.4563 7.57595 7.54865C7.57234 7.641 7.58705 7.73315 7.61924 7.81978C7.65143 7.90641 7.70045 7.98582 7.76349 8.0534C7.82652 8.12099 7.90231 8.17543 7.98649 8.21357C8.07067 8.25172 8.16157 8.27282 8.25395 8.27565C8.34632 8.27282 8.43722 8.25172 8.5214 8.21357C8.60558 8.17543 8.68137 8.12099 8.74441 8.0534C8.80744 7.98582 8.85646 7.90641 8.88865 7.81978C8.92084 7.73315 8.93555 7.641 8.93195 7.54865C8.93555 7.4563 8.92084 7.36415 8.88865 7.27752C8.85646 7.19089 8.80744 7.11149 8.74441 7.0439C8.68137 6.97631 8.60558 6.92188 8.5214 6.88373C8.43722 6.84558 8.34632 6.82449 8.25395 6.82165Z" fill="#2563EB"/>
</svg>
