<svg width="16" height="16" viewBox="0 0 16 16" fill="none" xmlns="http://www.w3.org/2000/svg">
<g clip-path="url(#clip0_1275_2045)">
<path d="M14.7742 3.77059C14.2653 3.99572 13.7255 4.14357 13.1729 4.20925C13.7554 3.86088 14.1914 3.3126 14.3995 2.66659C13.8529 2.99192 13.2535 3.21992 12.6289 3.34325C12.2093 2.89431 11.6531 2.59656 11.0469 2.49631C10.4406 2.39606 9.81817 2.49891 9.27639 2.78889C8.73461 3.07886 8.30381 3.53971 8.05096 4.09978C7.79811 4.65985 7.73738 5.28777 7.87821 5.88592C6.76962 5.83036 5.6851 5.54227 4.69507 5.04036C3.70504 4.53846 2.83163 3.83395 2.13155 2.97259C1.88374 3.39822 1.75352 3.88207 1.75421 4.37459C1.75421 5.34125 2.24621 6.19525 2.99421 6.69525C2.55155 6.68132 2.11864 6.56177 1.73155 6.34659V6.38125C1.73168 7.02505 1.95446 7.649 2.36211 8.14729C2.76976 8.64559 3.3372 8.98757 3.96821 9.11525C3.55729 9.22661 3.12642 9.24303 2.70821 9.16325C2.88613 9.71741 3.23288 10.2021 3.69994 10.5493C4.167 10.8966 4.73097 11.0891 5.31288 11.0999C4.73453 11.5541 4.07233 11.8899 3.36413 12.088C2.65594 12.2862 1.91563 12.3428 1.18555 12.2546C2.46001 13.0742 3.94361 13.5093 5.45888 13.5079C10.5875 13.5079 13.3922 9.25925 13.3922 5.57459C13.3922 5.45459 13.3889 5.33325 13.3835 5.21459C13.9295 4.82003 14.4006 4.33127 14.7749 3.77125L14.7742 3.77059Z" fill="white"/>
</g>
<defs>
<clipPath id="clip0_1275_2045">
<rect width="16" height="16" fill="white"/>
</clipPath>
</defs>
</svg>
