<svg width="20" height="20" viewBox="0 0 20 20" fill="none" xmlns="http://www.w3.org/2000/svg">
<path d="M2.07422 7.48633V13.9634C2.07422 14.564 2.31282 15.1401 2.73754 15.5648C3.16225 15.9895 3.73829 16.2281 4.33892 16.2281H15.6625C16.2631 16.2281 16.8391 15.9895 17.2638 15.5648C17.6886 15.1401 17.9272 14.564 17.9272 13.9634V7.48633L11.1874 11.633C10.8305 11.8526 10.4197 11.9688 10.0007 11.9688C9.58167 11.9688 9.17087 11.8526 8.81398 11.633L2.07422 7.48633Z" fill="#2563EB"/>
<path d="M17.9272 6.15546V6.03619C17.9272 5.43555 17.6886 4.85952 17.2638 4.4348C16.8391 4.01009 16.2631 3.77148 15.6625 3.77148H4.33892C3.73829 3.77148 3.16225 4.01009 2.73754 4.4348C2.31282 4.85952 2.07422 5.43555 2.07422 6.03619V6.15546L9.40734 10.6683C9.58578 10.7781 9.79118 10.8362 10.0007 10.8362C10.2102 10.8362 10.4156 10.7781 10.594 10.6683L17.9272 6.15546Z" fill="#2563EB"/>
</svg>
