<svg width="58" height="58" viewBox="0 0 58 58" fill="none" xmlns="http://www.w3.org/2000/svg">
<rect width="58" height="58" rx="29" fill="url(#paint0_linear_1962_2753)"/>
<path d="M29.731 9.25332C30.207 9.52599 30.568 9.86389 30.8147 10.3744C30.8795 11.0717 30.8523 11.4243 30.5244 12.0461C30.4159 12.1815 30.3152 12.2769 30.1623 12.356C30.0093 12.4351 29.9911 12.4565 29.8858 12.4565C30.7728 16.3274 32.6161 20.3389 35.1497 23.3473C35.0898 23.4249 35.0299 23.5025 34.9682 23.5825C34.143 24.6813 33.6475 25.6868 33.2918 27.0309C33.379 26.9986 33.4661 26.9663 33.5559 26.9331C35.6082 26.1798 37.5829 25.4765 39.7943 25.5895C40.1039 25.9098 40.1039 25.9098 40.1233 26.3302C40.1169 26.4557 40.1105 26.5813 40.1039 26.7106C39.7329 26.9025 39.3976 26.9139 38.9889 26.9496C35.7608 27.2497 31.9321 28.4396 29.5665 30.8265C29.2665 31.0349 29.2665 31.0349 28.8734 31.0136C28.4898 30.8737 28.2755 30.7366 27.9699 30.4643C25.6828 28.626 22.6585 27.5248 19.8225 27.0309C19.7034 27.0032 19.5842 26.9756 19.4615 26.9471C18.676 26.8387 18.2421 27.1254 17.6308 27.597C17.3625 27.8156 17.0993 28.039 16.838 28.2665C16.4165 28.6325 16.4165 28.6325 16.1068 28.7926C16.2142 28.7982 16.3215 28.8037 16.4321 28.8093C20.7773 29.049 24.5065 30.1608 28.1828 32.6364C28.2624 32.731 28.342 32.8256 28.4241 32.923C28.6466 33.161 28.6466 33.161 29.0216 33.0975C29.4557 32.9447 29.7281 32.7574 30.089 32.4663C32.4641 30.6857 35.2515 29.7372 38.0912 29.113C38.2108 29.0846 38.3304 29.0562 38.4536 29.0269C39.2909 28.8762 40.1465 28.9164 40.9941 28.9128C41.2815 28.9078 41.2815 28.9078 41.5747 28.9028C43.1795 28.8957 44.2876 29.09 45.5516 30.154C45.6759 30.2571 45.6759 30.2571 45.8028 30.3623C45.9791 30.5086 46.1548 30.6556 46.3299 30.8034C46.6195 31.0459 46.9123 31.2836 47.2063 31.5203C48.7143 32.7351 48.7143 32.7351 49.0834 33.1169C49.5655 33.6156 49.5479 33.6156 48.9286 33.9177C48.1978 33.9496 47.5849 33.8735 46.877 33.6897C41.9563 32.4198 36.5073 33.7345 32.1984 36.3739C31.3832 36.8965 30.6216 37.4657 29.8858 38.1019C29.4719 38.4393 29.3254 38.5549 28.7924 38.6224C28.258 38.3636 27.916 38.0272 27.4849 37.6157C23.6904 34.3242 17.8518 32.8903 13.0104 33.2771C12.184 33.3974 11.3743 33.5802 10.5624 33.7776C10.0276 33.9049 9.53616 33.9469 8.98513 33.9177C8.5982 33.6156 8.59811 33.6156 8.83031 33.1169C10.673 31.4327 14.1637 31.8651 16.4571 31.958C17.8128 32.0466 19.1256 32.2967 20.4418 32.6364C20.7259 32.7086 20.7259 32.7086 21.0157 32.7822C22.335 33.1634 23.5568 33.7646 24.7767 34.3982C24.8763 34.4495 24.9758 34.5007 25.0784 34.5536C26.2948 35.1853 27.3857 35.8467 28.4356 36.7568C28.7937 37.0101 28.7937 37.0101 29.1945 36.865C29.5659 36.6464 29.9023 36.4153 30.2438 36.1499C33.0829 34.0681 36.2242 32.8013 39.6394 32.156C39.7799 32.1276 39.9203 32.0992 40.065 32.07C40.6384 31.9855 41.1991 31.9757 41.7767 31.9802C41.9448 31.9805 41.9448 31.9805 42.1163 31.9809C42.4712 31.9818 42.8261 31.9838 43.1809 31.9858C43.4228 31.9866 43.6648 31.9873 43.9067 31.988C44.4969 31.9898 45.0872 31.9925 45.6774 31.9958C45.4139 31.7589 45.1484 31.5243 44.8821 31.2907C44.7345 31.1599 44.5869 31.029 44.4348 30.8941C43.6979 30.3503 43.0032 30.275 42.1166 30.2341C41.9493 30.2233 41.7821 30.2126 41.6098 30.2015C37.4233 30.0628 32.998 31.7351 29.731 34.3982C29.6136 34.5425 29.6136 34.5425 29.4939 34.6897C29.2665 34.8787 29.2665 34.8787 28.8928 34.8643C28.4316 34.6964 28.1785 34.485 27.8151 34.1479C24.3147 31.1491 19.4612 30.0243 15.0231 30.2341C14.6052 30.2753 14.1888 30.3221 13.7722 30.3759C13.6741 30.3819 13.576 30.388 13.4749 30.3942C13.3201 30.2341 13.3201 30.2341 13.2457 29.8806C13.3604 29.1911 13.8397 28.9168 14.3554 28.5224C14.4597 28.4396 14.5639 28.3569 14.6713 28.2716C14.8871 28.1005 15.1038 27.9305 15.3212 27.7615C15.6258 27.5243 15.9275 27.2838 16.2284 27.0415C18.158 25.4897 18.158 25.4897 19.5129 25.5895C19.9646 25.6544 20.4045 25.7512 20.8482 25.8597C21.0261 25.9018 21.0261 25.9018 21.2077 25.9447C22.3718 26.2295 23.4968 26.612 24.6219 27.0309C24.3013 26.0392 23.9924 25.1548 23.3834 24.3082C23.1761 23.9885 22.9695 23.6683 22.7641 23.3473C22.8853 23.1921 22.8853 23.1921 23.009 23.0338C25.3381 19.9492 27.3212 16.1698 28.028 12.2963C27.9258 12.2963 27.7915 12.1978 27.715 12.1187C27.3326 11.4066 27.3055 11.0111 27.4087 10.2143C27.9951 9.22342 28.6602 9.08233 29.731 9.25332Z" fill="white"/>
<path d="M29.0547 23.2169C28.7639 23.2169 28.5282 23.4526 28.5282 23.7433C28.5282 24.0341 28.7639 24.2698 29.0547 24.2698C29.3454 24.2698 29.5811 24.0341 29.5811 23.7433C29.5811 23.4526 29.3454 23.2169 29.0547 23.2169ZM28.956 12.7305V23.7433H29.1534V12.7305H28.956Z" fill="#2563EB"/>
<path d="M24.6785 40.6425L21.3737 43.9709L24.9865 49.0762H22.6649L20.1063 45.2857L19.0284 46.3518V49.0762H17.2043V40.6425H19.0284V44.1486L22.345 40.6425H24.6785ZM25.7289 49.0762V40.6425H27.6123L31.0829 46.2926V40.6425H32.8597V49.0762H31.0118L27.5175 43.4142V49.0762H25.7289ZM34.5205 40.6425H38.1569C39.1045 40.6425 39.8508 40.8794 40.4075 41.3295C40.9642 41.7796 41.2485 42.4548 41.2485 43.355C41.2485 44.2434 40.9642 44.9186 40.4193 45.3687C39.8626 45.8188 39.14 46.0438 38.2517 46.0438H36.3565V49.0762H34.5205V40.6425ZM36.3565 42.1587V44.5869H38.0029C38.9624 44.5869 39.448 44.1842 39.448 43.3787C39.448 42.5732 38.9624 42.1587 38.0148 42.1587H36.3565Z" fill="white"/>
<defs>
<linearGradient id="paint0_linear_1962_2753" x1="6.63732" y1="8.78169" x2="50.1373" y2="49.0141" gradientUnits="userSpaceOnUse">
<stop offset="0.275" stop-color="#4B84FF"/>
<stop offset="1" stop-color="#00329E"/>
</linearGradient>
</defs>
</svg>
